Résultats du protocole de l’étude spatiale à grande échelle de la température sur une section de la Nivelle
…
Hobo_Emilie_et_Lison_B2R3_8_11_58_14_CET_Data_CET_ <- read_excel("Hobo Emilie et Lison - B2R3-8 - 11_58_14 CET (Data CET).xlsx")

Hobo_air_B2R2_6_11_50_15_CET_Data_CET_ <- read_excel("Hobo air - B2R2-6 - 11_50_15 CET (Data CET).xlsx")

Hobo_Jules_et_Mathis_B6R2_24_11_51_50_CET_Data_CET_ <- read_excel("Hobo Jules et Mathis - B6R2-24 - 11_51_50 CET (Data CET).xlsx")

Hobo_Tentelier_et_Eva_2025_01_07_11_56_38_CET_Data_CET_ <- read_excel("Hobo Tentelier et Eva - 2025-01-07 11_56_38 CET (Data CET).xlsx")

                  #### // T° air // ####

HOBOair1 <- Hobo_air_B2R2_6_11_50_15_CET_Data_CET_
HOBOair1

## # A tibble: 106 × 4
##      `#` `Date et heure (CET)` `Température (°C)` `Lumière (lux)`
##    <dbl> <dttm>                             <dbl>           <dbl>
##  1     1 2025-01-07 10:05:00                 13.8           470. 
##  2     2 2025-01-07 10:06:00                 13.8           389. 
##  3     3 2025-01-07 10:07:00                 13.5            79.8
##  4     4 2025-01-07 10:08:00                 13.2            24.3
##  5     5 2025-01-07 10:09:00                 13.3          1591. 
##  6     6 2025-01-07 10:10:00                 13.2           169. 
##  7     7 2025-01-07 10:11:00                 13.5            96.8
##  8     8 2025-01-07 10:12:00                 14.3            44.2
##  9     9 2025-01-07 10:13:00                 16.2            68.1
## 10    10 2025-01-07 10:14:00                 15.8          2324. 
## # ℹ 96 more rows

HOBOair1$Date <- as.Date(HOBOair1$`Date et heure (CET)`) # DATE 
HOBOair1$Heure <- format(HOBOair1$`Date et heure (CET)`, format = "%H:%M:%S") # HEURES
HOBOair1 <- HOBOair1[, -2]

HOBOair2 <- HOBOair1[-c(1:27), ] # mise à l'eau 
HOBOair3 <- HOBOair2[-c(37:42), ] # sortie de l'eau à la passe à poisson
HOBOair <- HOBOair3[-c(67:73), ] # sortie de l'eau 

# jeu de données triés
HOBOair

## # A tibble: 66 × 5
##      `#` `Température (°C)` `Lumière (lux)` Date       Heure   
##    <dbl>              <dbl>           <dbl> <date>     <chr>   
##  1    28               7.50           4326. 2025-01-07 10:32:00
##  2    29               7.59           4803. 2025-01-07 10:33:00
##  3    30               7.81           4026. 2025-01-07 10:34:00
##  4    31               7.93           4594. 2025-01-07 10:35:00
##  5    32               8.11           3338. 2025-01-07 10:36:00
##  6    33               8.41           9800. 2025-01-07 10:37:00
##  7    34               9.09          18156. 2025-01-07 10:38:00
##  8    35               9.91          13158. 2025-01-07 10:39:00
##  9    36              10.6           16456. 2025-01-07 10:40:00
## 10    37              10.6            5430. 2025-01-07 10:41:00
## # ℹ 56 more rows

              #### // Kayak Emilie et Lison // ####

HOBOemili1 <- Hobo_Emilie_et_Lison_B2R3_8_11_58_14_CET_Data_CET_
HOBOemili1

## # A tibble: 123 × 4
##      `#` `Date et heure (CET)` `Température (°C)` `Lumière (lux)`
##    <dbl> <dttm>                             <dbl>           <dbl>
##  1     1 2025-01-07 09:56:00                 11.2           1853.
##  2     2 2025-01-07 09:57:00                 12.1            175.
##  3     3 2025-01-07 09:58:00                 12.6           2744.
##  4     4 2025-01-07 09:59:00                 12.9            638.
##  5     5 2025-01-07 10:00:00                 13.3            915.
##  6     6 2025-01-07 10:01:00                 13.6           1013.
##  7     7 2025-01-07 10:02:00                 13.4            714.
##  8     8 2025-01-07 10:03:00                 13.3            459.
##  9     9 2025-01-07 10:04:00                 13.1            739.
## 10    10 2025-01-07 10:05:00                 12.9            437.
## # ℹ 113 more rows

HOBOemili1$Date <- as.Date(HOBOemili1$`Date et heure (CET)`) # DATE 
HOBOemili1$Heure <- format(HOBOemili1$`Date et heure (CET)`, format = "%H:%M:%S") # HEURES
HOBOemili1 <- HOBOemili1[, -2]

HOBOemili2 <- HOBOemili1[-c(1:36), ] # mise à l'eau 
HOBOemili3 <- HOBOemili2[-c(37:42), ] # sortie de l'eau à la passe à poisson
HOBOemili <- HOBOemili3[-c(67:81), ] # sortie de l'eau 

# jeu de données triés 
HOBOemili

## # A tibble: 66 × 5
##      `#` `Température (°C)` `Lumière (lux)` Date       Heure   
##    <dbl>              <dbl>           <dbl> <date>     <chr>   
##  1    37               9.65           110.  2025-01-07 10:32:00
##  2    38               9.65            96.4 2025-01-07 10:33:00
##  3    39               9.69            87.8 2025-01-07 10:34:00
##  4    40               9.74           123.  2025-01-07 10:35:00
##  5    41               9.69           134.  2025-01-07 10:36:00
##  6    42               9.74           337.  2025-01-07 10:37:00
##  7    43               9.69           429.  2025-01-07 10:38:00
##  8    44               9.74           329.  2025-01-07 10:39:00
##  9    45               9.74           528.  2025-01-07 10:40:00
## 10    46               9.74           269.  2025-01-07 10:41:00
## # ℹ 56 more rows

              #### // Kayak Cedric Eva // ####

HOBOcedeva1 <- Hobo_Tentelier_et_Eva_2025_01_07_11_56_38_CET_Data_CET_
HOBOcedeva1

## # A tibble: 121 × 4
##      `#` `Date et heure (CET)` `Température (°C)` `Lumière (lux)`
##    <dbl> <dttm>                             <dbl>           <dbl>
##  1     1 2025-01-07 09:56:00                 10.0           262. 
##  2     2 2025-01-07 09:57:00                 12.4           569. 
##  3     3 2025-01-07 09:58:00                 13.2          1660. 
##  4     4 2025-01-07 09:59:00                 13.6          2511. 
##  5     5 2025-01-07 10:00:00                 14.1            90.1
##  6     6 2025-01-07 10:01:00                 13.9          1227. 
##  7     7 2025-01-07 10:02:00                 13.3           928  
##  8     8 2025-01-07 10:03:00                 13.0          1246. 
##  9     9 2025-01-07 10:04:00                 13.0          2239. 
## 10    10 2025-01-07 10:05:00                 13.0           516  
## # ℹ 111 more rows

HOBOcedeva1$Date <- as.Date(HOBOcedeva1$`Date et heure (CET)`) # DATE 
HOBOcedeva1$Heure <- format(HOBOcedeva1$`Date et heure (CET)`, format = "%H:%M:%S") # HEURES
HOBOcedeva1 <- HOBOcedeva1[, -2]

HOBOcedeva2 <- HOBOcedeva1[-c(1:36), ] # mise à l'eau 
HOBOcedeva3 <- HOBOcedeva2[-c(37:42), ] # sortie de l'eau à la passe à poisson
HOBOcedeva <- HOBOcedeva3[-c(67:79), ] # sortie de l'eau 

# jeu de données triés 
HOBOcedeva

## # A tibble: 66 × 5
##      `#` `Température (°C)` `Lumière (lux)` Date       Heure   
##    <dbl>              <dbl>           <dbl> <date>     <chr>   
##  1    37               9.91           128.  2025-01-07 10:32:00
##  2    38               9.82           111.  2025-01-07 10:33:00
##  3    39               9.82            99.3 2025-01-07 10:34:00
##  4    40               9.78           158.  2025-01-07 10:35:00
##  5    41               9.74           199.  2025-01-07 10:36:00
##  6    42               9.69           453.  2025-01-07 10:37:00
##  7    43               9.69           279.  2025-01-07 10:38:00
##  8    44               9.69           325.  2025-01-07 10:39:00
##  9    45               9.74           247.  2025-01-07 10:40:00
## 10    46               9.74           266.  2025-01-07 10:41:00
## # ℹ 56 more rows

              ####  // Kayak Jules Mathis // ####

HOBOjulmat1 <- Hobo_Jules_et_Mathis_B6R2_24_11_51_50_CET_Data_CET_
HOBOjulmat1

## # A tibble: 102 × 4
##      `#` `Date et heure (CET)` `Température (°C)` `Lumière (lux)`
##    <dbl> <dttm>                             <dbl>           <dbl>
##  1     1 2025-01-07 10:10:00                10.9           1737. 
##  2     2 2025-01-07 10:11:00                11.5           1102. 
##  3     3 2025-01-07 10:12:00                11.9            361. 
##  4     4 2025-01-07 10:13:00                12.4            782. 
##  5     5 2025-01-07 10:14:00                12.4             69.0
##  6     6 2025-01-07 10:15:00                12.5            114. 
##  7     7 2025-01-07 10:16:00                11.6            434. 
##  8     8 2025-01-07 10:17:00                11.0            227. 
##  9     9 2025-01-07 10:18:00                10.3            825. 
## 10    10 2025-01-07 10:19:00                 9.99           190. 
## # ℹ 92 more rows

HOBOjulmat1$Date <- as.Date(HOBOjulmat1$`Date et heure (CET)`) # DATE 
HOBOjulmat1$Heure <- format(HOBOjulmat1$`Date et heure (CET)`, format = "%H:%M:%S") # HEURES
HOBOjulmat1 <- HOBOjulmat1[, -2]

HOBOjulmat2 <- HOBOjulmat1[-c(1:22), ] # mise à l'eau 
HOBOjulmat3 <- HOBOjulmat2[-c(37:42), ] # sortie de l'eau à la passe à poisson
HOBOjulmat <- HOBOjulmat3[-c(67:74), ] # sortie de l'eau 

# jeu de données triés 
HOBOjulmat

## # A tibble: 66 × 5
##      `#` `Température (°C)` `Lumière (lux)` Date       Heure   
##    <dbl>              <dbl>           <dbl> <date>     <chr>   
##  1    23               9.61            496. 2025-01-07 10:32:00
##  2    24               9.74            368. 2025-01-07 10:33:00
##  3    25               9.74            390. 2025-01-07 10:34:00
##  4    26               9.69            317. 2025-01-07 10:35:00
##  5    27               9.78           1447. 2025-01-07 10:36:00
##  6    28               9.82            240. 2025-01-07 10:37:00
##  7    29               9.86           1965. 2025-01-07 10:38:00
##  8    30               9.82           2509. 2025-01-07 10:39:00
##  9    31               9.86           2362. 2025-01-07 10:40:00
## 10    32               9.86            611. 2025-01-07 10:41:00
## # ℹ 56 more rows

//////////////////// TOUS ///////////////////

HOBOair

## # A tibble: 66 × 5
##      `#` `Température (°C)` `Lumière (lux)` Date       Heure   
##    <dbl>              <dbl>           <dbl> <date>     <chr>   
##  1    28               7.50           4326. 2025-01-07 10:32:00
##  2    29               7.59           4803. 2025-01-07 10:33:00
##  3    30               7.81           4026. 2025-01-07 10:34:00
##  4    31               7.93           4594. 2025-01-07 10:35:00
##  5    32               8.11           3338. 2025-01-07 10:36:00
##  6    33               8.41           9800. 2025-01-07 10:37:00
##  7    34               9.09          18156. 2025-01-07 10:38:00
##  8    35               9.91          13158. 2025-01-07 10:39:00
##  9    36              10.6           16456. 2025-01-07 10:40:00
## 10    37              10.6            5430. 2025-01-07 10:41:00
## # ℹ 56 more rows

HOBOemili

## # A tibble: 66 × 5
##      `#` `Température (°C)` `Lumière (lux)` Date       Heure   
##    <dbl>              <dbl>           <dbl> <date>     <chr>   
##  1    37               9.65           110.  2025-01-07 10:32:00
##  2    38               9.65            96.4 2025-01-07 10:33:00
##  3    39               9.69            87.8 2025-01-07 10:34:00
##  4    40               9.74           123.  2025-01-07 10:35:00
##  5    41               9.69           134.  2025-01-07 10:36:00
##  6    42               9.74           337.  2025-01-07 10:37:00
##  7    43               9.69           429.  2025-01-07 10:38:00
##  8    44               9.74           329.  2025-01-07 10:39:00
##  9    45               9.74           528.  2025-01-07 10:40:00
## 10    46               9.74           269.  2025-01-07 10:41:00
## # ℹ 56 more rows

HOBOcedeva

## # A tibble: 66 × 5
##      `#` `Température (°C)` `Lumière (lux)` Date       Heure   
##    <dbl>              <dbl>           <dbl> <date>     <chr>   
##  1    37               9.91           128.  2025-01-07 10:32:00
##  2    38               9.82           111.  2025-01-07 10:33:00
##  3    39               9.82            99.3 2025-01-07 10:34:00
##  4    40               9.78           158.  2025-01-07 10:35:00
##  5    41               9.74           199.  2025-01-07 10:36:00
##  6    42               9.69           453.  2025-01-07 10:37:00
##  7    43               9.69           279.  2025-01-07 10:38:00
##  8    44               9.69           325.  2025-01-07 10:39:00
##  9    45               9.74           247.  2025-01-07 10:40:00
## 10    46               9.74           266.  2025-01-07 10:41:00
## # ℹ 56 more rows

HOBOjulmat

## # A tibble: 66 × 5
##      `#` `Température (°C)` `Lumière (lux)` Date       Heure   
##    <dbl>              <dbl>           <dbl> <date>     <chr>   
##  1    23               9.61            496. 2025-01-07 10:32:00
##  2    24               9.74            368. 2025-01-07 10:33:00
##  3    25               9.74            390. 2025-01-07 10:34:00
##  4    26               9.69            317. 2025-01-07 10:35:00
##  5    27               9.78           1447. 2025-01-07 10:36:00
##  6    28               9.82            240. 2025-01-07 10:37:00
##  7    29               9.86           1965. 2025-01-07 10:38:00
##  8    30               9.82           2509. 2025-01-07 10:39:00
##  9    31               9.86           2362. 2025-01-07 10:40:00
## 10    32               9.86            611. 2025-01-07 10:41:00
## # ℹ 56 more rows
…
donnees_moy_sd <- donnees_moy_sd[ -1,]
donnees_moy_sd <- donnees_moy_sd[-c(38:39), ]

donnees_moy_sd$Heure1<- as.POSIXct(HOBOjulmat$Heure4, format = "%H:%M:%S")

donnees_moy_sd

## # A tibble: 66 × 7
##    Heure  Tempcedeva Tempjulmat Tempemili Moyenne Ecarttype Heure1             
##    <time>      <dbl>      <dbl>     <dbl>   <dbl>     <dbl> <dttm>             
##  1 10:32        9.91       9.61      9.65    9.72      0.16 2025-02-11 10:32:00
##  2 10:33        9.82       9.74      9.65    9.74      0.09 2025-02-11 10:33:00
##  3 10:34        9.82       9.74      9.69    9.75      0.07 2025-02-11 10:34:00
##  4 10:35        9.78       9.69      9.74    9.74      0.04 2025-02-11 10:35:00
##  5 10:36        9.74       9.78      9.69    9.74      0.04 2025-02-11 10:36:00
##  6 10:37        9.69       9.82      9.74    9.75      0.07 2025-02-11 10:37:00
##  7 10:38        9.69       9.86      9.69    9.75      0.1  2025-02-11 10:38:00
##  8 10:39        9.69       9.82      9.74    9.75      0.07 2025-02-11 10:39:00
##  9 10:40        9.74       9.86      9.74    9.78      0.07 2025-02-11 10:40:00
## 10 10:41        9.74       9.86      9.74    9.78      0.07 2025-02-11 10:41:00
## # ℹ 56 more rows
…
